email,team_name
first.first@gmail.com,team-flowers
second.second@gmail.com,team-trees
third.third@gmail.com,team-trees
fourth.fourth@gmail.com,team-flowers
fifth.fifth@gmail.com,team-flowers
sixth.sixth@gmail,team-trees
